Week07/Part01/tb_counter_circuit.vcd
$date
	Mon Mar 30 09:09:50 2026
$end
$version
	Icarus Verilog
$end
$timescale
	1s
$end
$scope module tb_counter_circuit $end
$var wire 4 ! Y [3:0] $end
$var wire 4 " X [3:0] $end
$var reg 1 # clk $end
$var reg 1 $ clr $end
$scope module DUT $end
$var wire 1 # clk $end
$var wire 1 $ clr $end
$var wire 1 % w1 $end
$var wire 1 & w2 $end
$var wire 1 ' w4 $end
$var wire 4 ( wY [3:0] $end
$var wire 4 ) wX [3:0] $end
$var wire 1 * w3 $end
$var reg 4 + X [3:0] $end
$var reg 4 , Y [3:0] $end
$scope module c0 $end
$var wire 4 - D [3:0] $end
$var wire 1 . Enable $end
$var wire 1 # clk $end
$var wire 1 % load $end
$var reg 4 / X [3:0] $end
$upscope $end
$scope module c1 $end
$var wire 4 0 D [3:0] $end
$var wire 1 * Enable $end
$var wire 1 # clk $end
$var wire 1 & load $end
$var reg 4 1 X [3:0] $end
$upscope $end
$upscope $end
$scope begin $ivl_for_loop0 $end
$var integer 32 2 i [31:0] $end
$upscope $end
$upscope $end
$enddefinitions $end
$comment Show the parameter values. $end
$dumpall
$end
#0
$dumpvars
bx 2
bx 1
b0 0
bx /
1.
b0 -
bx ,
bx +
x*
bx )
bx (
x'
1&
1%
1$
0#
bx "
bx !
$end
#5
0'
b0 !
b0 ,
0*
b0 "
b0 +
b0 )
b0 /
b0 (
b0 1
1#
#10
0%
0&
0#
0$
#15
b1 "
b1 +
b1 )
b1 /
1#
b0 2
#20
0#
#25
b10 "
b10 +
b10 )
b10 /
1#
b1 2
#30
0#
#35
b11 "
b11 +
b11 )
b11 /
1#
b10 2
#40
0#
#45
b100 "
b100 +
b100 )
b100 /
1#
b11 2
#50
0#
#55
b101 "
b101 +
b101 )
b101 /
1#
b100 2
#60
0#
#65
b110 "
b110 +
b110 )
b110 /
1#
b101 2
#70
0#
#75
b111 "
b111 +
b111 )
b111 /
1#
b110 2
#80
0#
#85
b1000 "
b1000 +
b1000 )
b1000 /
1#
b111 2
#90
0#
#95
1%
1*
b1001 "
b1001 +
b1001 )
b1001 /
1#
b1000 2
#100
0#
#105
0%
b1 !
b1 ,
0*
b0 "
b0 +
b0 )
b0 /
b1 (
b1 1
1#
b1001 2
#110
0#
#115
b1 "
b1 +
b1 )
b1 /
1#
b1010 2
#120
0#
#125
b10 "
b10 +
b10 )
b10 /
1#
b1011 2
#130
0#
#135
b11 "
b11 +
b11 )
b11 /
1#
b1100 2
#140
0#
#145
b100 "
b100 +
b100 )
b100 /
1#
b1101 2
#150
0#
#155
b101 "
b101 +
b101 )
b101 /
1#
b1110 2
#160
0#
#165
b110 "
b110 +
b110 )
b110 /
1#
b1111 2
#170
0#
#175
b111 "
b111 +
b111 )
b111 /
1#
b10000 2
#180
0#
#185
b1000 "
b1000 +
b1000 )
b1000 /
1#
b10001 2
#190
0#
#195
1%
1*
b1001 "
b1001 +
b1001 )
b1001 /
1#
b10010 2
#200
0#
#205
0%
b10 !
b10 ,
0*
b0 "
b0 +
b0 )
b0 /
b10 (
b10 1
1#
b10011 2
#210
0#
#215
b1 "
b1 +
b1 )
b1 /
1#
b10100 2
#220
0#
#225
b10 "
b10 +
b10 )
b10 /
1#
b10101 2
#230
0#
#235
b11 "
b11 +
b11 )
b11 /
1#
b10110 2
#240
0#
#245
b100 "
b100 +
b100 )
b100 /
1#
b10111 2
#250
0#
#255
b101 "
b101 +
b101 )
b101 /
1#
b11000 2
#260
0#
#265
b110 "
b110 +
b110 )
b110 /
1#
b11001 2
#270
0#
#275
b111 "
b111 +
b111 )
b111 /
1#
b11010 2
#280
0#
#285
b1000 "
b1000 +
b1000 )
b1000 /
1#
b11011 2
#290
0#
#295
1%
1*
b1001 "
b1001 +
b1001 )
b1001 /
1#
b11100 2
#300
0#
#305
0%
b11 !
b11 ,
0*
b0 "
b0 +
b0 )
b0 /
b11 (
b11 1
1#
b11101 2
#310
0#
#315
b1 "
b1 +
b1 )
b1 /
1#
b11110 2
#320
0#
#325
b10 "
b10 +
b10 )
b10 /
1#
b11111 2
#330
0#
#335
b11 "
b11 +
b11 )
b11 /
1#
b100000 2
#340
0#
#345
b100 "
b100 +
b100 )
b100 /
1#
b100001 2
#350
0#
#355
b101 "
b101 +
b101 )
b101 /
1#
b100010 2
#360
0#
#365
b110 "
b110 +
b110 )
b110 /
1#
b100011 2
#370
0#
#375
b111 "
b111 +
b111 )
b111 /
1#
b100100 2
#380
0#
#385
b1000 "
b1000 +
b1000 )
b1000 /
1#
b100101 2
#390
0#
#395
1%
1*
b1001 "
b1001 +
b1001 )
b1001 /
1#
b100110 2
#400
0#
#405
0%
b100 !
b100 ,
0*
b0 "
b0 +
b0 )
b0 /
b100 (
b100 1
1#
b100111 2
#410
0#
#415
b1 "
b1 +
b1 )
b1 /
1#
b101000 2
#420
0#
#425
b10 "
b10 +
b10 )
b10 /
1#
b101001 2
#430
0#
#435
b11 "
b11 +
b11 )
b11 /
1#
b101010 2
#440
0#
#445
b100 "
b100 +
b100 )
b100 /
1#
b101011 2
#450
0#
#455
b101 "
b101 +
b101 )
b101 /
1#
b101100 2
#460
0#
#465
b110 "
b110 +
b110 )
b110 /
1#
b101101 2
#470
0#
#475
b111 "
b111 +
b111 )
b111 /
1#
b101110 2
#480
0#
#485
b1000 "
b1000 +
b1000 )
b1000 /
1#
b101111 2
#490
0#
#495
1%
1*
b1001 "
b1001 +
b1001 )
b1001 /
1#
b110000 2
#500
0#
#505
0%
b101 !
b101 ,
0*
b0 "
b0 +
b0 )
b0 /
b101 (
b101 1
1#
b110001 2
#510
0#
#515
b1 "
b1 +
b1 )
b1 /
1#
b110010 2
#520
0#
#525
b10 "
b10 +
b10 )
b10 /
1#
b110011 2
#530
0#
#535
b11 "
b11 +
b11 )
b11 /
1#
b110100 2
#540
0#
#545
b100 "
b100 +
b100 )
b100 /
1#
b110101 2
#550
0#
#555
b101 "
b101 +
b101 )
b101 /
1#
b110110 2
#560
0#
#565
b110 "
b110 +
b110 )
b110 /
1#
b110111 2
#570
0#
#575
b111 "
b111 +
b111 )
b111 /
1#
b111000 2
#580
0#
#585
b1000 "
b1000 +
b1000 )
b1000 /
1#
b111001 2
#590
0#
#595
1%
1*
b1001 "
b1001 +
b1001 )
b1001 /
1#
b111010 2
#600
0#
#605
0%
b110 !
b110 ,
0*
b0 "
b0 +
b0 )
b0 /
b110 (
b110 1
1#
b111011 2
#610
0#
#615
b1 "
b1 +
b1 )
b1 /
1#
b111100 2
#620
0#
#625
b10 "
b10 +
b10 )
b10 /
1#
b111101 2
#630
0#
#635
b11 "
b11 +
b11 )
b11 /
1#
b111110 2
#640
0#
#645
b100 "
b100 +
b100 )
b100 /
1#
b111111 2
#650
0#
#655
b101 "
b101 +
b101 )
b101 /
1#
b1000000 2
#660
0#
#665
b110 "
b110 +
b110 )
b110 /
1#
b1000001 2
#670
0#
#675
b111 "
b111 +
b111 )
b111 /
1#
b1000010 2
#680
0#
#685
b1000 "
b1000 +
b1000 )
b1000 /
1#
b1000011 2
#690
0#
#695
1%
1*
b1001 "
b1001 +
b1001 )
b1001 /
1#
b1000100 2
#700
0#
#705
0%
b111 !
b111 ,
0*
b0 "
b0 +
b0 )
b0 /
b111 (
b111 1
1#
b1000101 2
#710
0#
#715
b1 "
b1 +
b1 )
b1 /
1#
b1000110 2
#720
0#
#725
b10 "
b10 +
b10 )
b10 /
1#
b1000111 2
#730
0#
#735
b11 "
b11 +
b11 )
b11 /
1#
b1001000 2
#740
0#
#745
b100 "
b100 +
b100 )
b100 /
1#
b1001001 2
#750
0#
#755
b101 "
b101 +
b101 )
b101 /
1#
b1001010 2
#760
0#
#765
b110 "
b110 +
b110 )
b110 /
1#
b1001011 2
#770
0#
#775
b111 "
b111 +
b111 )
b111 /
1#
b1001100 2
#780
0#
#785
b1000 "
b1000 +
b1000 )
b1000 /
1#
b1001101 2
#790
0#
#795
1%
1*
b1001 "
b1001 +
b1001 )
b1001 /
1#
b1001110 2
#800
0#
#805
0%
b1000 !
b1000 ,
0*
b0 "
b0 +
b0 )
b0 /
b1000 (
b1000 1
1#
b1001111 2
#810
0#
#815
b1 "
b1 +
b1 )
b1 /
1#
b1010000 2
#820
0#
#825
b10 "
b10 +
b10 )
b10 /
1#
b1010001 2
#830
0#
#835
b11 "
b11 +
b11 )
b11 /
1#
b1010010 2
#840
0#
#845
b100 "
b100 +
b100 )
b100 /
1#
b1010011 2
#850
0#
#855
b101 "
b101 +
b101 )
b101 /
1#
b1010100 2
#860
0#
#865
b110 "
b110 +
b110 )
b110 /
1#
b1010101 2
#870
0#
#875
b111 "
b111 +
b111 )
b111 /
1#
b1010110 2
#880
0#
#885
b1000 "
b1000 +
b1000 )
b1000 /
1#
b1010111 2
#890
0#
#895
1%
1*
b1001 "
b1001 +
b1001 )
b1001 /
1#
b1011000 2
#900
0#
#905
0%
b1001 !
b1001 ,
0*
b0 "
b0 +
b0 )
b0 /
b1001 (
b1001 1
1#
b1011001 2
#910
0#
#915
b1 "
b1 +
b1 )
b1 /
1#
b1011010 2
#920
0#
#925
b10 "
b10 +
b10 )
b10 /
1#
b1011011 2
#930
0#
#935
b11 "
b11 +
b11 )
b11 /
1#
b1011100 2
#940
0#
#945
b100 "
b100 +
b100 )
b100 /
1#
b1011101 2
#950
0#
#955
b101 "
b101 +
b101 )
b101 /
1#
b1011110 2
#960
0#
#965
b110 "
b110 +
b110 )
b110 /
1#
b1011111 2
#970
0#
#975
b111 "
b111 +
b111 )
b111 /
1#
b1100000 2
#980
0#
#985
b1000 "
b1000 +
b1000 )
b1000 /
1#
b1100001 2
#990
0#
#995
1&
1%
1'
1*
b1001 "
b1001 +
b1001 )
b1001 /
1#
b1100010 2
#1000
0#
#1005
0&
0%
0'
b0 !
b0 ,
0*
b0 "
b0 +
b0 )
b0 /
b0 (
b0 1
1#
b1100011 2
#1010
0#
#1015
b1 "
b1 +
b1 )
b1 /
1#
b1100100 2
#1020
0#
#1025
b10 "
b10 +
b10 )
b10 /
1#
b1100101 2
#1030
0#
#1035
b11 "
b11 +
b11 )
b11 /
1#
b1100110 2
#1040
0#
#1045
b100 "
b100 +
b100 )
b100 /
1#
b1100111 2
